{
  "extends": ["tslint:latest", "tslint-config-prettier"],
  "rules": {
    "ban-types": false,
    "prefer-conditional-expression": false,
    "no-empty-interface": false,
    "no-duplicate-imports": false,
    "eofline": false,
    "no-object-literal-type-assertion": false,
    "no-this-assignment": false,
    "no-bitwise": false,
    "interface-over-type-literal": false,
    "interface-name": false,
    "max-line-length": [true, 120],
    "no-var-requires": false,
    "ordered-imports": false,
    "quotemark": [true, "single"],
    "no-console": false,
    "no-unused-expression": [true, "allow-fast-null-checks", "allow-new", "allow-tagged-template"],
    "only-arrow-functions": false,
    "no-implicit-dependencies": false,
    "no-conditional-assignment": false,
    "no-angle-bracket-type-assertion": false,
    "whitespace": [
      true,
      "check-branch",
      "check-decl",
      "check-module",
      "check-operator",
      "check-preblock",
      "check-separator",
      "check-type",
      "check-typecast"
    ],
    "member-access": [true, "check-constructor", "no-public"],
    "object-literal-sort-keys": false,
    "max-classes-per-file": false,
    "no-trailing-whitespace": false,
    "arrow-parens": false,
    "no-empty": false,
    "no-shadowed-variable": true,
    "no-string-literal": false,
    "trailing-comma": true,
    "space-before-function-paren": false,
    "radix": false,
    "no-namespace": false,
    "no-submodule-imports": false,
    "semicolon": true,
    "member-ordering": false,
    "triple-equals": false,
    "variable-name": [true, "allow-trailing-underscore", "allow-pascal-case"],
    "object-literal-key-quotes": false
  }
}
